{
  "valueType": "nodes",
  "values": [
    {
      "_typeName": "User",
      "id": "cjuc6fxoq006f0748nprma9ad",
      "displayName": "Deni THS",
      "updatedAt": "2019-04-23T03:27:27.597Z",
      "firebaseId": "02eQMoNCYxTT7TksSbBYZLeanjh2",
      "email": "thehalcyonsavant@gmail.com",
      "role": "ADMIN",
      "lastName": "Kotsev",
      "firstName": "Deni",
      "createdAt": "2019-04-11T05:03:23.208Z"
    },
    {
      "_typeName": "User",
      "id": "cjuqe7ycy005n0748fhy36hmd",
      "displayName": "Guest",
      "updatedAt": "2019-04-21T03:49:54.222Z",
      "firebaseId": "SsRZRMH0pPOsCnPMIIWFLUjsAb03",
      "email": "err8086@gmail.com",
      "role": "USER",
      "firstName": "anonymous",
      "createdAt": "2019-04-21T03:49:54.222Z"
    },
    {
      "_typeName": "OptionValue",
      "id": "cjujkmjox00io0748az0z2zp9",
      "createdAt": "2019-04-16T09:14:49.521Z",
      "name": "ov1",
      "updatedAt": "2019-04-16T09:14:49.521Z"
    },
    {
      "_typeName": "OptionValue",
      "id": "cjujkmtgb00ix07482ch9c6fc",
      "createdAt": "2019-04-16T09:15:02.170Z",
      "name": "ov2",
      "updatedAt": "2019-04-16T09:15:02.170Z"
    },
    {
      "_typeName": "Shop",
      "id": "cjuc5l00m006407481l32ugz3",
      "openingHours": "08:00",
      "city": "NYC",
      "name": "testShop",
      "updatedAt": "2019-04-11T04:39:19.880Z",
      "phoneNumber": "3243-67-676",
      "zipCode": "23423",
      "createdAt": "2019-04-11T04:39:19.880Z",
      "address": "sdsdf"
    },
    {
      "_typeName": "Category",
      "id": "cjuipijpv00b907486bg2d1dr",
      "createdAt": "2019-04-15T18:43:54.834Z",
      "name": "testCategory",
      "updatedAt": "2019-04-15T18:43:54.834Z"
    },
    {
      "_typeName": "Category",
      "id": "cjujbii7a00cu07487y7e4xv2",
      "createdAt": "2019-04-16T04:59:44.421Z",
      "name": "Cat1",
      "updatedAt": "2019-04-16T04:59:44.421Z"
    },
    {
      "_typeName": "Category",
      "id": "cjujclm5f00d8074874ro9ydc",
      "createdAt": "2019-04-16T05:30:09.123Z",
      "name": "Cat2",
      "updatedAt": "2019-04-16T05:30:09.123Z"
    },
    {
      "_typeName": "Category",
      "id": "cjujd7iaf00gm0748oomzafbg",
      "createdAt": "2019-04-16T05:47:10.551Z",
      "name": "Cat3 - added",
      "updatedAt": "2019-04-22T04:50:25.353Z"
    },
    {
      "_typeName": "Option",
      "id": "cjujkm8t100ic0748qcygal13",
      "updatedAt": "2019-04-16T09:14:35.413Z",
      "createdAt": "2019-04-16T09:14:35.413Z",
      "name": "o1"
    }
  ]
}
