{
  "valueType": "relations",
  "values": [
    [
      {
        "_typeName": "User",
        "id": "cjuqe7ycy005n0748fhy36hmd",
        "fieldName": "selectedShop"
      },
      {
        "_typeName": "Shop",
        "id": "cjuc5l00m006407481l32ugz3"
      }
    ],
    [
      {
        "_typeName": "User",
        "id": "cjuc6fxoq006f0748nprma9ad",
        "fieldName": "selectedShop"
      },
      {
        "_typeName": "Shop",
        "id": "cjuc5l00m006407481l32ugz3"
      }
    ],
    [
      {
        "_typeName": "Shop",
        "id": "cjuc5l00m006407481l32ugz3"
      },
      {
        "_typeName": "Category",
        "id": "cjuipijpv00b907486bg2d1dr",
        "fieldName": "shop"
      }
    ],
    [
      {
        "_typeName": "Shop",
        "id": "cjuc5l00m006407481l32ugz3"
      },
      {
        "_typeName": "Category",
        "id": "cjujbii7a00cu07487y7e4xv2",
        "fieldName": "shop"
      }
    ],
    [
      {
        "_typeName": "Shop",
        "id": "cjuc5l00m006407481l32ugz3"
      },
      {
        "_typeName": "Category",
        "id": "cjujclm5f00d8074874ro9ydc",
        "fieldName": "shop"
      }
    ],
    [
      {
        "_typeName": "Shop",
        "id": "cjuc5l00m006407481l32ugz3"
      },
      {
        "_typeName": "Category",
        "id": "cjujd7iaf00gm0748oomzafbg",
        "fieldName": "shop"
      }
    ],
    [
      {
        "_typeName": "OptionValue",
        "id": "cjujkmtgb00ix07482ch9c6fc"
      },
      {
        "_typeName": "Option",
        "id": "cjujkm8t100ic0748qcygal13",
        "fieldName": "values"
      }
    ],
    [
      {
        "_typeName": "Option",
        "id": "cjujkm8t100ic0748qcygal13",
        "fieldName": "category"
      },
      {
        "_typeName": "Category",
        "id": "cjujclm5f00d8074874ro9ydc",
        "fieldName": "options"
      }
    ],
    [
      {
        "_typeName": "Shop",
        "id": "cjuc5l00m006407481l32ugz3"
      },
      {
        "_typeName": "Option",
        "id": "cjujkm8t100ic0748qcygal13",
        "fieldName": "shop"
      }
    ]
  ]
}
